DATA-613-001-Summer Data Science
…
So, I can’t find the relationship between flight age and delay. But, I would like to try one more with mean of delay for each flight tailnum.

2.2 Second try with mean of delay per tailnum.

Let’s do departure delay first.

df_by_tailnum <- df_clean %>%
  select(tailnum, dep_delay, plane_age) %>% 
  group_by(tailnum) %>%
  summarize(mean_dep_delay = mean(dep_delay), plane_age = first(plane_age))

df_by_tailnum 

# A tibble: 3,246 × 3
   tailnum mean_dep_delay plane_age
   <chr>            <dbl>     <int>
 1 N10156          18.0           9
 2 N102UW           8            15
 3 N103US          -3.20         14
 4 N104UW          10.1          14
 5 N10575          22.1          11
 6 N105UW           2.58         14
 7 N107US          -0.463        14
 8 N108UW           4.22         14
 9 N109UW           0.104        14
10 N110UW           3.8          14
# ℹ 3,236 more rows
…
df_by_tailnum_arr <- df_clean %>%
  select(tailnum, arr_delay, plane_age) %>% 
  group_by(tailnum) %>%
  summarize(mean_arr_delay = mean(arr_delay), plane_age = first(plane_age))

df_by_tailnum_arr

# A tibble: 3,246 × 3
   tailnum mean_arr_delay plane_age
   <chr>            <dbl>     <int>
 1 N10156          12.7           9
 2 N102UW           2.94         15
 3 N103US          -6.93         14
 4 N104UW           1.80         14
 5 N10575          20.7          11
 6 N105UW          -0.267        14
 7 N107US          -5.73         14
 8 N108UW          -1.25         14
 9 N109UW          -2.52         14
10 N110UW           2.8          14
# ℹ 3,236 more rows
…
We can find there is no relationship between mean of delay for each flight tailnum and delay.

2.3 Third try with mean of delay per year.

Departure delay will be analysed first.

df_by_tailnum_age <- df_clean %>%
  select(tailnum, dep_delay, arr_delay, plane_age) %>% 
  group_by(plane_age) %>%
  summarize(mean_dep_delay = mean(dep_delay), mean_arr_delay = mean(arr_delay), plane_age = first(plane_age))

df_by_tailnum_age

# A tibble: 46 × 3
   plane_age mean_dep_delay mean_arr_delay
       <int>          <dbl>          <dbl>
 1         0          10.5            4.01
 2         1           9.65           2.85
 3         2          11.8            5.70
 4         3          12.5            5.18
 5         4          10.9            4.92
 6         5          13.0            5.57
 7         6          13.6            7.54
 8         7          14.5            9.90
 9         8          14.7            9.80
10         9          16.3           10.2 
# ℹ 36 more rows
…
df_clean %>% 
  inner_join(top10_dep_delay, by = c("year", "month", "day")) %>% 
  arrange(desc(median_dep_delay))

# A tibble: 7,464 × 22
    year month   day dep_time sched_dep_time dep_delay arr_time sched_arr_time
   <int> <int> <int>    <int>          <int>     <dbl>    <int>          <int>
 1  2013     3     8        1           2355         6      431            440
 2  2013     3     8        5           2020       225      226           2318
 3  2013     3     8        8           2145       143      240             34
 4  2013     3     8        9           2155       134      238             48
 5  2013     3     8       11           2230       101      437            312
 6  2013     3     8       12           2245        87      127           2356
 7  2013     3     8       13           2140       153      144           2305
 8  2013     3     8       17           1918       299      237           2216
 9  2013     3     8       22           2359        23      447            438
10  2013     3     8       22           2150       152      258             42
# ℹ 7,454 more rows
# ℹ 14 more variables: arr_delay <dbl>, carrier <chr>, flight <int>,
#   tailnum <chr>, origin <chr>, dest <chr>, air_time <dbl>, distance <dbl>,
#   hour <dbl>, minute <dbl>, time_hour <dttm>, made_year <int>,
#   plane_age <int>, median_dep_delay <dbl>

3.1 Select all flights from those 10 days.

top10_dep_delay %>% 
  inner_join(df_clean, by = c("year", "month", "day")) %>% 
  arrange(desc(median_dep_delay))

# A tibble: 7,464 × 22
# Groups:   year, month [6]
    year month   day median_dep_delay dep_time sched_dep_time dep_delay arr_time
   <int> <int> <int>            <dbl>    <int>          <int>     <dbl>    <int>
 1  2013     3     8             60.5        1           2355         6      431
 2  2013     3     8             60.5        5           2020       225      226
 3  2013     3     8             60.5        8           2145       143      240
 4  2013     3     8             60.5        9           2155       134      238
 5  2013     3     8             60.5       11           2230       101      437
 6  2013     3     8             60.5       12           2245        87      127
 7  2013     3     8             60.5       13           2140       153      144
 8  2013     3     8             60.5       17           1918       299      237
 9  2013     3     8             60.5       22           2359        23      447
10  2013     3     8             60.5       22           2150       152      258
# ℹ 7,454 more rows
# ℹ 14 more variables: sched_arr_time <int>, arr_delay <dbl>, carrier <chr>,
#   flight <int>, tailnum <chr>, origin <chr>, dest <chr>, air_time <dbl>,
#   distance <dbl>, hour <dbl>, minute <dbl>, time_hour <dttm>,
#   made_year <int>, plane_age <int>
