hw3_anna_hyunjung_kim
…
 [1] "State or territory"          "Census population[8][9][a]" 
 [3] "Census population[8][9][a]"  "Change,2010–2020[9][a]"     
 [5] "Change,2010–2020[9][a]"      "House seats[b]"             
 [7] "House seats[b]"              "Pop. perelec. vote(2020)[c]"
 [9] "Pop.perseat(2020)[a]"        "% US(2020)"                 
[11] "% EC(2020)"                 

I can see on the table first two row is column name, so I should figure out. I will remove first line and modify the second line name.

names(hw3) <- as.character(unlist(hw3[1, ]))
#hw3
hw3 <- hw3[-1,]
hw3

# A tibble: 60 × 11
   `State or territory` `July 1, 2024 (est.)` `April 1, 2020` `%`    Abs.  Seats
   <chr>                <chr>                 <chr>           <chr>  <chr> <chr>
 1 California           39,431,263            39,538,223      6.13%  2,28… 52   
 2 Texas                31,290,831            29,145,505      15.91% 3,99… 38   
 3 Florida              23,372,215            21,538,187      14.56% 2,73… 28   
 4 New York             19,867,248            20,201,249      4.25%  823,… 26   
 5 Pennsylvania         13,078,751            13,002,700      2.36%  300,… 17   
 6 Illinois             12,710,158            12,812,508      −0.14% −18,… 17   
 7 Ohio                 11,883,304            11,799,448      2.28%  262,… 15   
 8 Georgia              11,180,878            10,711,908      10.57% 1,02… 14   
 9 North Carolina       11,046,024            10,439,388      9.48%  903,… 14   
10 Michigan             10,140,459            10,077,331      1.96%  193,… 13   
# ℹ 50 more rows
# ℹ 5 more variables: `%` <chr>, `Pop. perelec. vote(2020)[c]` <chr>,
#   `Pop.perseat(2020)[a]` <chr>, `% US(2020)` <chr>, `% EC(2020)` <chr>
…
4. Handle NA

hw3[hw3 == "—"] <- NA

hw3

# A tibble: 60 × 11
   state_or_territory population_2024 population_2020 `change_%_2010-2020`
   <chr>              <chr>           <chr>           <chr>               
 1 California         39,431,263      39,538,223      6.13%               
 2 Texas              31,290,831      29,145,505      15.91%              
 3 Florida            23,372,215      21,538,187      14.56%              
 4 New York           19,867,248      20,201,249      4.25%               
 5 Pennsylvania       13,078,751      13,002,700      2.36%               
 6 Illinois           12,710,158      12,812,508      −0.14%              
 7 Ohio               11,883,304      11,799,448      2.28%               
 8 Georgia            11,180,878      10,711,908      10.57%              
 9 North Carolina     11,046,024      10,439,388      9.48%               
10 Michigan           10,140,459      10,077,331      1.96%               
# ℹ 50 more rows
# ℹ 7 more variables: `change_abs_2010-2020` <chr>, seats <chr>,
#   `seat_%` <chr>, pop_per_elec_vote <chr>, pop_per_seat <chr>, `%_us` <chr>,
#   `%_ec` <chr>
…
